--------------------------------------
Post was made at: 2015-09-24 15:30
a:1:{s:4:"data";s:33:"{"contact_id":123,"app_name":456}";}--------------------------------------
Post was made at: 2015-09-24 15:31
a:0:{}--------------------------------------
Post was made at: 2015-09-24 15:32
a:1:{s:4:"data";s:23:"{"jira_issue":"htti-3"}";}--------------------------------------
Post was made at: 2015-09-24 15:34
O:8:"stdClass":1:{s:10:"jira_issue";s:6:"htti-3";}--------------------------------------
Post was made at: 2015-09-24 15:34
done--------------------------------------
Post was made at: 2015-09-25 01:12
--------------------------------------
Post was made at: 2015-09-25 01:12
--------------------------------------
Post was made at: 2015-09-25 01:16
--------------------------------------
Post was made at: 2015-09-25 01:16
--------------------------------------
Post was made at: 2015-09-25 01:16
--------------------------------------
Post was made at: 2015-09-25 01:16
--------------------------------------
Post was made at: 2015-09-25 01:16
--------------------------------------
Post was made at: 2015-09-25 01:16
--------------------------------------
Post was made at: 2015-09-25 01:17
